{
  "songs": [
    {
      "id": 50098,
      "title": "new 1",
      "song_number": 1,
      "url": "gogole",
      "artist": null,
      "lyrics": "[G]Down by bay, [D]Where the watermellon grow[D7] back to my hoime",
      "chords": null,
      "created_at": "2022-06-29T11:42:10.614-04:00",
      "updated_at": "2022-06-29T11:42:10.614-04:00",
      "category": "general",
      "sub_category": null
    },
    {
      "id": 50099,
      "title": "new 2",
      "song_number": 2,
      "url": "gogole",
      "artist": null,
      "lyrics": "[G]Down by bay, [D]Where the watermellon grow[D7] back to my hoime",
      "chords": null,
      "created_at": "2022-06-29T11:42:10.616-04:00",
      "updated_at": "2022-06-29T11:42:10.616-04:00",
      "category": "general",
      "sub_category": null
    }
  ],
  "page_info": {
    "overflow": false,
    "vars": {
      "page": 1,
      "items": 50,
      "outset": 0,
      "size": [
	1,
	4,
	4,
	1
      ],
      "page_param": "page",
      "params": {},
      "fragment": "",
      "link_extra": "",
      "i18n_key": "pagy.item_name",
      "cycle": false,
      "trim_extra": true,
      "headers": {
	"page": "Current-Page",
	"items": "Page-Items",
	"count": "Total-Count",
	"pages": "Total-Pages"
      },
      "overflow": "last_page",
      "count": 99
    },
    "count": 99,
    "page": 1,
    "outset": 0,
    "items": 50,
    "last": 2,
    "pages": 2,
    "offset": 0,
    "params": {},
    "from": 1,
    "to": 50,
    "in": 50,
    "prev": null,
    "next": 2
  }
}
